{
    "@context": {
        "@version": 1.1,
        "@protected": true,

        "id": "@id",
        "type": "@type",
        "VerifiableCredential": "https://www.w3.org/2018/credentials#VerifiableCredential",
        "DashModelFormat": {
            "@id": "https://gitlab.com/dashgl/format",
            "@context": {
                "@version": 1.1,
                "@protected": true,

                "id": "@id",
                "type": "@type",

                "cred": "https://www.w3.org/2018/credentials#",
                "sec": "https://w3id.org/security#",
                "xsd": "http://www.w3.org/2001/XMLSchema#",

                "credentialSchema": {
                    "@id": "cred:credentialSchema",
                    "@type": "@id",
                    "@context": {
                        "@version": 1.1,
                        "@protected": true,

                        "id": "@id",
                        "type": "@type",

                        "cred": "https://www.w3.org/2018/credentials#",

                        "JsonSchemaValidator2018": "cred:JsonSchemaValidator2018"
                    }
                },
                "credentialStatus": {
                    "@id": "cred:credentialStatus",
                    "@type": "@id"
                },
                "credentialSubject": {
                    "@id": "cred:credentialSubject",
                    "@type": "@id",
                    "@context": {
                        "name": {
                            "@id": "https://gitlab.com/dashgl/format/-/wikis/Format-Overview#name"
                        },
                        "copyright": {
                            "@id": "https://gitlab.com/dashgl/format/-/wikis/Format-Overview#copyright"
                        },
                        "exportedFrom": {
                            "@id": "https://gitlab.com/dashgl/format/-/wikis/Format-Overview#exported-from"
                        },
                        "url": {
                            "@id": "https://gitlab.com/dashgl/format/-/wikis/Format-Overview#url"
                        },
                        "formatVersion": {
                            "@id": "https://gitlab.com/dashgl/format/-/wikis/Format-Overview#formatVersion"
                        },
                        "faces": {
                            "@id": "https://gitlab.com/dashgl/format/-/wikis/Format-Overview#faces",
                            "@context": {
                                "materialIndex": {
                                    "@id": "https://gitlab.com/dashgl/format/-/wikis/DashFace-2.0#materialindex"
                                },
                                "indices": {
                                    "@id": "https://gitlab.com/dashgl/format/-/wikis/DashFace-2.0#indices",
                                    "@context": {
                                        "a": {
                                            "@id": "https://gitlab.com/dashgl/format/-/wikis/DashFace-2.0#dashindices-a"
                                        },
                                        "b": {
                                            "@id": "https://gitlab.com/dashgl/format/-/wikis/DashFace-2.0#dashindices-b"
                                        },
                                        "c": {
                                            "@id": "https://gitlab.com/dashgl/format/-/wikis/DashFace-2.0#dashindices-c"
                                        }
                                    }
                                },
                                "diffuseMap": {
                                    "@id": "https://gitlab.com/dashgl/format/-/wikis/DashFace-2.0#diffusemap",
                                    "@context": {
                                        "a": {
                                            "@id": "https://gitlab.com/dashgl/format/-/wikis/DashTypes-2.0#dashindices-a",
                                            "@context": {
                                                "u": {
                                                    "@id": "https://gitlab.com/dashgl/format/-/wikis/DashFace-2.0#texture-coords-u"
                                                },
                                                "v": {
                                                    "@id": "https://gitlab.com/dashgl/format/-/wikis/DashFace-2.0#texture-coords-v"
                                                }
                                            }
                                        },
                                        "b": {
                                            "@id": "https://gitlab.com/dashgl/format/-/wikis/DashTypes-2.0#dashindices-b",
                                            "@context": {
                                                "u": {
                                                    "@id": "https://gitlab.com/dashgl/format/-/wikis/DashFace-2.0#texture-coords-u"
                                                },
                                                "v": {
                                                    "@id": "https://gitlab.com/dashgl/format/-/wikis/DashFace-2.0#texture-coords-v"
                                                }
                                            }
                                        },
                                        "c": {
                                            "@id": "https://gitlab.com/dashgl/format/-/wikis/DashTypes-2.0#dashindices-c",
                                            "@context": {
                                                "u": {
                                                    "@id": "https://gitlab.com/dashgl/format/-/wikis/DashFace-2.0#texture-coords-u"
                                                },
                                                "v": {
                                                    "@id": "https://gitlab.com/dashgl/format/-/wikis/DashFace-2.0#texture-coords-v"
                                                }
                                            }
                                        }
                                    }
                                }
                            }
                        },
                        "vertices": {
                            "@id": "https://gitlab.com/dashgl/format/-/wikis/Format-Overview#vertices",
                            "@context": {
                                "position": {
                                    "@id": "https://gitlab.com/dashgl/format/-/wikis/DashVertex-2.0#position",
                                    "@context": {
                                        "x": {
                                            "@id": "https://gitlab.com/dashgl/format/-/wikis/DashTypes-2.0#vec3-x"
                                        },
                                        "y": {
                                            "@id": "https://gitlab.com/dashgl/format/-/wikis/DashTypes-2.0#vec3-x"
                                        },
                                        "z": {
                                            "@id": "https://gitlab.com/dashgl/format/-/wikis/DashTypes-2.0#vec3-x"
                                        }
                                    }
                                }
                            }
                        },
                        "materials": {
                            "@id": "https://gitlab.com/dashgl/format/-/wikis/Format-Overview#materials",
                            "@context": {
                                "textureIndex": {
                                    "@id": "https://gitlab.com/dashgl/format/-/wikis/DashMaterial-2.0#textureindex"
                                }
                            }
                        },
                        "textures": {
                            "@id": "https://gitlab.com/dashgl/format/-/wikis/Format-Overview#textures",
                            "@context": {
                                "width": {
                                    "@id": "https://gitlab.com/dashgl/format/-/wikis/DashTexture-2.0#width"
                                },
                                "height": {
                                    "@id": "https://gitlab.com/dashgl/format/-/wikis/DashTexture-2.0#height"
                                },
                                "data": {
                                    "@id": "https://gitlab.com/dashgl/format/-/wikis/DashTexture-2.0#data"
                                },
                                "format": {
                                    "@id": "https://gitlab.com/dashgl/format/-/wikis/DashTexture-2.0#format"
                                }
                            }
                        },
                        "skeleton": {
                            "@id": "https://gitlab.com/dashgl/format/-/wikis/Format-Overview#skeleton"
                        }
                    }
                },
                "evidence": { "@id": "cred:evidence", "@type": "@id" },
                "expirationDate": {
                    "@id": "cred:expirationDate",
                    "@type": "xsd:dateTime"
                },
                "holder": { "@id": "cred:holder", "@type": "@id" },
                "issued": { "@id": "cred:issued", "@type": "xsd:dateTime" },
                "issuer": { "@id": "cred:issuer", "@type": "@id" },
                "issuanceDate": {
                    "@id": "cred:issuanceDate",
                    "@type": "xsd:dateTime"
                },
                "proof": {
                    "@id": "sec:proof",
                    "@type": "@id",
                    "@container": "@graph"
                },
                "refreshService": {
                    "@id": "cred:refreshService",
                    "@type": "@id",
                    "@context": {
                        "@version": 1.1,
                        "@protected": true,

                        "id": "@id",
                        "type": "@type",

                        "cred": "https://www.w3.org/2018/credentials#",

                        "ManualRefreshService2018": "cred:ManualRefreshService2018"
                    }
                },
                "termsOfUse": { "@id": "cred:termsOfUse", "@type": "@id" },
                "validFrom": {
                    "@id": "cred:validFrom",
                    "@type": "xsd:dateTime"
                },
                "validUntil": {
                    "@id": "cred:validUntil",
                    "@type": "xsd:dateTime"
                }
            }
        },

        "VerifiablePresentation": {
            "@id": "https://www.w3.org/2018/credentials#VerifiablePresentation",
            "@context": {
                "@version": 1.1,
                "@protected": true,

                "id": "@id",
                "type": "@type",

                "cred": "https://www.w3.org/2018/credentials#",
                "sec": "https://w3id.org/security#",

                "holder": { "@id": "cred:holder", "@type": "@id" },
                "proof": {
                    "@id": "sec:proof",
                    "@type": "@id",
                    "@container": "@graph"
                },
                "verifiableCredential": {
                    "@id": "cred:verifiableCredential",
                    "@type": "@id",
                    "@container": "@graph"
                }
            }
        },

        "EcdsaSecp256k1Signature2019": {
            "@id": "https://w3id.org/security#EcdsaSecp256k1Signature2019",
            "@context": {
                "@version": 1.1,
                "@protected": true,

                "id": "@id",
                "type": "@type",

                "sec": "https://w3id.org/security#",
                "xsd": "http://www.w3.org/2001/XMLSchema#",

                "challenge": "sec:challenge",
                "created": {
                    "@id": "http://purl.org/dc/terms/created",
                    "@type": "xsd:dateTime"
                },
                "domain": "sec:domain",
                "expires": { "@id": "sec:expiration", "@type": "xsd:dateTime" },
                "jws": "sec:jws",
                "nonce": "sec:nonce",
                "proofPurpose": {
                    "@id": "sec:proofPurpose",
                    "@type": "@vocab",
                    "@context": {
                        "@version": 1.1,
                        "@protected": true,

                        "id": "@id",
                        "type": "@type",

                        "sec": "https://w3id.org/security#",

                        "assertionMethod": {
                            "@id": "sec:assertionMethod",
                            "@type": "@id",
                            "@container": "@set"
                        },
                        "authentication": {
                            "@id": "sec:authenticationMethod",
                            "@type": "@id",
                            "@container": "@set"
                        }
                    }
                },
                "proofValue": "sec:proofValue",
                "verificationMethod": {
                    "@id": "sec:verificationMethod",
                    "@type": "@id"
                }
            }
        },

        "EcdsaSecp256r1Signature2019": {
            "@id": "https://w3id.org/security#EcdsaSecp256r1Signature2019",
            "@context": {
                "@version": 1.1,
                "@protected": true,

                "id": "@id",
                "type": "@type",

                "sec": "https://w3id.org/security#",
                "xsd": "http://www.w3.org/2001/XMLSchema#",

                "challenge": "sec:challenge",
                "created": {
                    "@id": "http://purl.org/dc/terms/created",
                    "@type": "xsd:dateTime"
                },
                "domain": "sec:domain",
                "expires": { "@id": "sec:expiration", "@type": "xsd:dateTime" },
                "jws": "sec:jws",
                "nonce": "sec:nonce",
                "proofPurpose": {
                    "@id": "sec:proofPurpose",
                    "@type": "@vocab",
                    "@context": {
                        "@version": 1.1,
                        "@protected": true,

                        "id": "@id",
                        "type": "@type",

                        "sec": "https://w3id.org/security#",

                        "assertionMethod": {
                            "@id": "sec:assertionMethod",
                            "@type": "@id",
                            "@container": "@set"
                        },
                        "authentication": {
                            "@id": "sec:authenticationMethod",
                            "@type": "@id",
                            "@container": "@set"
                        }
                    }
                },
                "proofValue": "sec:proofValue",
                "verificationMethod": {
                    "@id": "sec:verificationMethod",
                    "@type": "@id"
                }
            }
        },

        "Ed25519Signature2018": {
            "@id": "https://w3id.org/security#Ed25519Signature2018",
            "@context": {
                "@version": 1.1,
                "@protected": true,

                "id": "@id",
                "type": "@type",

                "sec": "https://w3id.org/security#",
                "xsd": "http://www.w3.org/2001/XMLSchema#",

                "challenge": "sec:challenge",
                "created": {
                    "@id": "http://purl.org/dc/terms/created",
                    "@type": "xsd:dateTime"
                },
                "domain": "sec:domain",
                "expires": { "@id": "sec:expiration", "@type": "xsd:dateTime" },
                "jws": "sec:jws",
                "nonce": "sec:nonce",
                "proofPurpose": {
                    "@id": "sec:proofPurpose",
                    "@type": "@vocab",
                    "@context": {
                        "@version": 1.1,
                        "@protected": true,

                        "id": "@id",
                        "type": "@type",

                        "sec": "https://w3id.org/security#",

                        "assertionMethod": {
                            "@id": "sec:assertionMethod",
                            "@type": "@id",
                            "@container": "@set"
                        },
                        "authentication": {
                            "@id": "sec:authenticationMethod",
                            "@type": "@id",
                            "@container": "@set"
                        }
                    }
                },
                "proofValue": "sec:proofValue",
                "verificationMethod": {
                    "@id": "sec:verificationMethod",
                    "@type": "@id"
                }
            }
        },

        "RsaSignature2018": {
            "@id": "https://w3id.org/security#RsaSignature2018",
            "@context": {
                "@version": 1.1,
                "@protected": true,

                "challenge": "sec:challenge",
                "created": {
                    "@id": "http://purl.org/dc/terms/created",
                    "@type": "xsd:dateTime"
                },
                "domain": "sec:domain",
                "expires": { "@id": "sec:expiration", "@type": "xsd:dateTime" },
                "jws": "sec:jws",
                "nonce": "sec:nonce",
                "proofPurpose": {
                    "@id": "sec:proofPurpose",
                    "@type": "@vocab",
                    "@context": {
                        "@version": 1.1,
                        "@protected": true,

                        "id": "@id",
                        "type": "@type",

                        "sec": "https://w3id.org/security#",

                        "assertionMethod": {
                            "@id": "sec:assertionMethod",
                            "@type": "@id",
                            "@container": "@set"
                        },
                        "authentication": {
                            "@id": "sec:authenticationMethod",
                            "@type": "@id",
                            "@container": "@set"
                        }
                    }
                },
                "proofValue": "sec:proofValue",
                "verificationMethod": {
                    "@id": "sec:verificationMethod",
                    "@type": "@id"
                }
            }
        },

        "proof": {
            "@id": "https://w3id.org/security#proof",
            "@type": "@id",
            "@container": "@graph"
        }
    }
}
