{
    "@context": [
        "https://www.w3.org/2018/credentials/v1",
        {
            "@context": {
                "glTFModel": "https://registry.khronos.org/glTF/specs/2.0/glTF-2.0.html",
                "NORMAL": "https://registry.khronos.org/glTF/specs/2.0/glTF-2.0.html#normal",
                "POSITION": "https://registry.khronos.org/glTF/specs/2.0/glTF-2.0.html#position",
                "SCALAR": {
                    "@id": "https://registry.khronos.org/glTF/specs/2.0/glTF-2.0.html#scalar"
                },
                "VEC3": {
                    "@id": "https://registry.khronos.org/glTF/specs/2.0/glTF-2.0.html#vec3"
                },
                "accessors": "https://registry.khronos.org/glTF/specs/2.0/glTF-2.0.html#accessors",
                "asset": "https://registry.khronos.org/glTF/specs/2.0/glTF-2.0.html#asset",
                "attributes": "https://registry.khronos.org/glTF/specs/2.0/glTF-2.0.html#attributes",
                "baseColorFactor": "https://registry.khronos.org/glTF/specs/2.0/glTF-2.0.html#baseColorFactor",
                "buffer": "https://registry.khronos.org/glTF/specs/2.0/glTF-2.0.html#buffer",
                "bufferView": "https://registry.khronos.org/glTF/specs/2.0/glTF-2.0.html#bufferView",
                "bufferViews": "https://registry.khronos.org/glTF/specs/2.0/glTF-2.0.html#bufferViews",
                "buffers": "https://registry.khronos.org/glTF/specs/2.0/glTF-2.0.html#buffers",
                "byteLength": "https://registry.khronos.org/glTF/specs/2.0/glTF-2.0.html#byteLength",
                "byteOffset": "https://registry.khronos.org/glTF/specs/2.0/glTF-2.0.html#byteOffset",
                "byteStride": "https://registry.khronos.org/glTF/specs/2.0/glTF-2.0.html#byteStride",
                "children": "https://registry.khronos.org/glTF/specs/2.0/glTF-2.0.html#children",
                "componentType": "https://registry.khronos.org/glTF/specs/2.0/glTF-2.0.html#componentType",
                "count": "https://registry.khronos.org/glTF/specs/2.0/glTF-2.0.html#count",
                "generator": "https://registry.khronos.org/glTF/specs/2.0/glTF-2.0.html#generator",
                "indices": "https://registry.khronos.org/glTF/specs/2.0/glTF-2.0.html#indices",
                "material": "https://registry.khronos.org/glTF/specs/2.0/glTF-2.0.html#material",
                "materials": "https://registry.khronos.org/glTF/specs/2.0/glTF-2.0.html#materials",
                "matrix": "https://registry.khronos.org/glTF/specs/2.0/glTF-2.0.html#matrix",
                "mesh": "https://registry.khronos.org/glTF/specs/2.0/glTF-2.0.html#mesh",
                "meshes": "https://registry.khronos.org/glTF/specs/2.0/glTF-2.0.html#meshes",
                "metallicFactor": "https://registry.khronos.org/glTF/specs/2.0/glTF-2.0.html#metallicFactor",
                "min": "https://registry.khronos.org/glTF/specs/2.0/glTF-2.0.html#min",
                "max": "https://registry.khronos.org/glTF/specs/2.0/glTF-2.0.html#max",
                "mode": "https://registry.khronos.org/glTF/specs/2.0/glTF-2.0.html#mode",
                "name": "https://registry.khronos.org/glTF/specs/2.0/glTF-2.0.html#name",
                "nodes": "https://registry.khronos.org/glTF/specs/2.0/glTF-2.0.html#nodes",
                "pbrMetallicRoughness": "https://registry.khronos.org/glTF/specs/2.0/glTF-2.0.html#pbrMetallicRoughness",
                "primitives": "https://registry.khronos.org/glTF/specs/2.0/glTF-2.0.html#primitives",
                "scene": "https://registry.khronos.org/glTF/specs/2.0/glTF-2.0.html#scene",
                "scenes": "https://registry.khronos.org/glTF/specs/2.0/glTF-2.0.html#scenes",
                "target": "https://registry.khronos.org/glTF/specs/2.0/glTF-2.0.html#target",
                "uri": "https://registry.khronos.org/glTF/specs/2.0/glTF-2.0.html#uri",
                "version": "https://registry.khronos.org/glTF/specs/2.0/glTF-2.0.html#version"
            }
        }
    ],
    "@id": "urn:uuid:123",
    "type": ["VerifiableCredential", "glTFModel"],
    "issuer": "did:key:z6MktiSzqF9kqwdU8VkdBKx56EYzXfpgnNPUAGznpicNiWfn",
    "issuanceDate": "2010-01-01T19:23:24Z",
    "credentialSubject": {
        "asset": {
            "generator": "COLLADA2GLTF",
            "version": "2.0"
        },
        "scene": 0,
        "scenes": [
            {
                "nodes": [0]
            }
        ],
        "nodes": [
            {
                "children": [1],
                "matrix": [
                    1.0, 0.0, 0.0, 0.0, 0.0, 0.0, -1.0, 0.0, 0.0, 1.0, 0.0, 0.0,
                    0.0, 0.0, 0.0, 1.0
                ]
            },
            {
                "mesh": 0
            }
        ],
        "meshes": [
            {
                "primitives": [
                    {
                        "attributes": {
                            "NORMAL": 1,
                            "POSITION": 2
                        },
                        "indices": 0,
                        "mode": 4,
                        "material": 0
                    }
                ],
                "name": "Mesh"
            }
        ],
        "accessors": [
            {
                "bufferView": 0,
                "byteOffset": 0,
                "componentType": 5123,
                "count": 36,
                "max": [23],
                "min": [0],
                "type": "SCALAR"
            },
            {
                "bufferView": 1,
                "byteOffset": 0,
                "componentType": 5126,
                "count": 24,
                "max": [1.0, 1.0, 1.0],
                "min": [-1.0, -1.0, -1.0],
                "type": "VEC3"
            },
            {
                "bufferView": 1,
                "byteOffset": 288,
                "componentType": 5126,
                "count": 24,
                "max": [0.5, 0.5, 0.5],
                "min": [-0.5, -0.5, -0.5],
                "type": "VEC3"
            }
        ],
        "materials": [
            {
                "pbrMetallicRoughness": {
                    "baseColorFactor": [0.800000011920929, 0.0, 0.0, 1.0],
                    "metallicFactor": 0.0
                },
                "name": "Red"
            }
        ],
        "bufferViews": [
            {
                "buffer": 0,
                "byteOffset": 576,
                "byteLength": 72,
                "target": 34963
            },
            {
                "buffer": 0,
                "byteOffset": 0,
                "byteLength": 576,
                "byteStride": 12,
                "target": 34962
            }
        ],
        "buffers": [
            {
                "byteLength": 648,
                "uri": "Box0.bin"
            }
        ]
    }
}
